{
  "title": "Intro to NextJS",
  "description": "A brief overview of using NextJS to generate static sites.",
  "date": 1645461718000,
  "copy": [
    "A tree cannot be straight if it has a crooked trunk. Be so very light. Be a gentle whisper. You can do it. We'll lay all these little funky little things in there. This is where you take out all your hostilities and frustrations. It's better than kicking the puppy dog around and all that so. Let your imagination be your guide.",
    "It's cold, but it's beautiful. This is a fantastic little painting. We'll have a super time.",
    "In life you need colors. This is unplanned it really just happens. Water's like me. It's laaazy... Boy, it always looks for the easiest way to do things Now we don't want him to get lonely, so we'll give him a little friend. I started painting as a hobby when I was little. I didn't know I had any talent. I believe talent is just a pursued interest. Anybody can do what I do.",
    "We need dark in order to show light. We don't have to be concerned about it. We just have to let it fall where it will. In your world you have total and absolute power. Let your imagination be your guide. Trees live in your fan brush, but you have to scare them out.",
    "You can do anything your heart can imagine. Just let these leaves jump off the brush Trees grow in all kinds of ways. They're not all perfectly straight. Not every limb is perfect.",
    "Just a happy little shadow that lives in there. This present moment is perfect simply due to the fact you're experiencing it. Don't forget to tell these special people in your life just how special they are to you."
  ]
}
